0.0 0.0 0.35 0 0
0.3031088913245535 0.08 0.175 0 0
0.0 0.08 0.35 0 0
0.0 0.0 0.35 0 0
0.3031088913245535 0.0 0.175 0 0
0.3031088913245535 0.08 0.175 0 0
0.0 0.08 0.35 0 0
0.37239092362730863 0.08 0.215 0 0
0.0 0.08 0.43 0 0
0.0 0.08 0.35 0 0
0.3031088913245535 0.08 0.175 0 0
0.37239092362730863 0.08 0.215 0 0
0.0 0.0 0.43 0 0
0.37239092362730863 0.08 0.215 0 0
0.37239092362730863 0.0 0.215 0 0
0.0 0.0 0.43 0 0
0.0 0.08 0.43 0 0
0.37239092362730863 0.08 0.215 0 0
0.0 0.008 0.0 0 0
0.3031088913245535 0.008 0.175 0 0
0.0 0.008 0.35 0 0
-0.3031088913245535 0.0 0.175 0 0
0.0 0.08 0.35 0 0
-0.3031088913245535 0.08 0.175 0 0
-0.3031088913245535 0.0 0.175 0 0
0.0 0.0 0.35 0 0
0.0 0.08 0.35 0 0
-0.3031088913245535 0.08 0.175 0 0
0.0 0.08 0.43 0 0
-0.37239092362730863 0.08 0.215 0 0
-0.3031088913245535 0.08 0.175 0 0
0.0 0.08 0.35 0 0
0.0 0.08 0.43 0 0
-0.37239092362730863 0.0 0.215 0 0
0.0 0.08 0.43 0 0
0.0 0.0 0.43 0 0
-0.37239092362730863 0.0 0.215 0 0
-0.37239092362730863 0.08 0.215 0 0
0.0 0.08 0.43 0 0
0.0 0.008 0.0 0 0
0.0 0.008 0.35 0 0
-0.3031088913245535 0.008 0.175 0 0
-0.3031088913245535 0.0 -0.17499999999999996 0 0
-0.3031088913245535 0.08 0.175 0 0
-0.3031088913245535 0.08 -0.17499999999999996 0 0
-0.3031088913245535 0.0 -0.17499999999999996 0 0
-0.3031088913245535 0.0 0.175 0 0
-0.3031088913245535 0.08 0.175 0 0
-0.3031088913245535 0.08 -0.17499999999999996 0 0
-0.37239092362730863 0.08 0.215 0 0
-0.37239092362730863 0.08 -0.21499999999999997 0 0
-0.3031088913245535 0.08 -0.17499999999999996 0 0
-0.3031088913245535 0.08 0.175 0 0
-0.37239092362730863 0.08 0.215 0 0
-0.37239092362730863 0.0 -0.21499999999999997 0 0
-0.37239092362730863 0.08 0.215 0 0
-0.37239092362730863 0.0 0.215 0 0
-0.37239092362730863 0.0 -0.21499999999999997 0 0
-0.37239092362730863 0.08 -0.21499999999999997 0 0
-0.37239092362730863 0.08 0.215 0 0
0.0 0.008 0.0 0 0
-0.3031088913245535 0.008 0.175 0 0
-0.3031088913245535 0.008 -0.17499999999999996 0 0
-2.7755575615628914e-17 0.0 -0.3499999999999999 0 0
-0.3031088913245535 0.08 -0.17499999999999996 0 0
-2.7755575615628914e-17 0.08 -0.3499999999999999 0 0
-2.7755575615628914e-17 0.0 -0.3499999999999999 0 0
-0.3031088913245535 0.0 -0.17499999999999996 0 0
-0.3031088913245535 0.08 -0.17499999999999996 0 0
-2.7755575615628914e-17 0.08 -0.3499999999999999 0 0
-0.37239092362730863 0.08 -0.21499999999999997 0 0
-3.4099707184915524e-17 0.08 -0.42999999999999994 0 0
-2.7755575615628914e-17 0.08 -0.3499999999999999 0 0
-0.3031088913245535 0.08 -0.17499999999999996 0 0
-0.37239092362730863 0.08 -0.21499999999999997 0 0
-3.4099707184915524e-17 0.0 -0.42999999999999994 0 0
-0.37239092362730863 0.08 -0.21499999999999997 0 0
-0.37239092362730863 0.0 -0.21499999999999997 0 0
-3.4099707184915524e-17 0.0 -0.42999999999999994 0 0
-3.4099707184915524e-17 0.08 -0.42999999999999994 0 0
-0.37239092362730863 0.08 -0.21499999999999997 0 0
0.0 0.008 0.0 0 0
-0.3031088913245535 0.008 -0.17499999999999996 0 0
-2.7755575615628914e-17 0.008 -0.3499999999999999 0 0
0.30310889132455343 0.0 -0.175 0 0
-2.7755575615628914e-17 0.08 -0.3499999999999999 0 0
0.30310889132455343 0.08 -0.175 0 0
0.30310889132455343 0.0 -0.175 0 0
-2.7755575615628914e-17 0.0 -0.3499999999999999 0 0
-2.7755575615628914e-17 0.08 -0.3499999999999999 0 0
0.30310889132455343 0.08 -0.175 0 0
-3.4099707184915524e-17 0.08 -0.42999999999999994 0 0
0.3723909236273085 0.08 -0.215 0 0
0.30310889132455343 0.08 -0.175 0 0
-2.7755575615628914e-17 0.08 -0.3499999999999999 0 0
-3.4099707184915524e-17 0.08 -0.42999999999999994 0 0
0.3723909236273085 0.0 -0.215 0 0
-3.4099707184915524e-17 0.08 -0.42999999999999994 0 0
-3.4099707184915524e-17 0.0 -0.42999999999999994 0 0
0.3723909236273085 0.0 -0.215 0 0
0.3723909236273085 0.08 -0.215 0 0
-3.4099707184915524e-17 0.08 -0.42999999999999994 0 0
0.0 0.008 0.0 0 0
-2.7755575615628914e-17 0.008 -0.3499999999999999 0 0
0.30310889132455343 0.008 -0.175 0 0
0.30310889132455343 0.0 0.1749999999999999 0 0
0.30310889132455343 0.08 -0.175 0 0
0.30310889132455343 0.08 0.1749999999999999 0 0
0.30310889132455343 0.0 0.1749999999999999 0 0
0.30310889132455343 0.0 -0.175 0 0
0.30310889132455343 0.08 -0.175 0 0
0.30310889132455343 0.08 0.1749999999999999 0 0
0.3723909236273085 0.08 -0.215 0 0
0.3723909236273085 0.08 0.21499999999999989 0 0
0.30310889132455343 0.08 0.1749999999999999 0 0
0.30310889132455343 0.08 -0.175 0 0
0.3723909236273085 0.08 -0.215 0 0
0.3723909236273085 0.0 0.21499999999999989 0 0
0.3723909236273085 0.08 -0.215 0 0
0.3723909236273085 0.0 -0.215 0 0
0.3723909236273085 0.0 0.21499999999999989 0 0
0.3723909236273085 0.08 0.21499999999999989 0 0
0.3723909236273085 0.08 -0.215 0 0
0.0 0.008 0.0 0 0
0.30310889132455343 0.008 -0.175 0 0
0.30310889132455343 0.008 0.1749999999999999 0 0
