0 0 0 0 0
0.3 0 0 0.3 0
0.1 0 0.35 0.1 0.35

0 0 0 0 0
0.1 0 0.35 0.1 0.35
0 0 1 0 1

0 0 1 0 1
0.1 0 0.35 0.1 0.35
0.3 0 0.7 0.3 0.7

0 0 1 0 1
0.3 0 0.7 0.3 0.7
0.7 0 0.7 0.7 0.7

0 0 1 0 1
0.7 0 0.7 0.7 0.7
1 0 1 1 1

1 0 1 1 1
0.7 0 0.7 0.7 0.7
0.9 0 0.35 0.9 0.35

1 0 1 1 1
0.9 0 0.35 0.9 0.35
1 0 0 1 0

0.7 0 0 0.7 0
1 0 0 1 0
0.9 0 0.35 0.9 0.35


0.3 0 0 0 0
0.3 -0.01 0 1 0
0.1 0 0.35 0 1
0.1 0 0.35 0 1
0.3 -0.01 0 1 0
0.1 -0.01 0.35 1 1

0.1 0 0.35 0 0
0.1 -0.01 0.35 1 0
0.3 0 0.7 0 1
0.3 0 0.7 0 1
0.1 -0.01 0.35 1 0
0.3 -0.01 0.7 1 1

0.3 0 0.7 0 0
0.3 -0.01 0.7 1 0
0.7 0 0.7 0 1
0.7 0 0.7 0 1
0.3 -0.01 0.7 1 0
0.7 -0.01 0.7 1 1

0.7 0 0.7 0 0
0.7 -0.01 0.7 1 0
0.9 0 0.35 0 1
0.9 0 0.35 0 1
0.7 -0.01 0.7 1 0
0.9 -0.01 0.35 1 1

0.9 0 0.35 0 0
0.9 -0.01 0.35 1 0
0.7 0 0 0 1
0.7 0 0 0 1
0.9 -0.01 0.35 1 0
0.7 -0.01 0 1 1

0.7 0 0 0 0
0.7 -0.01 0 1 0
0.3 0 0 0 1
0.3 0 0 0 1
0.7 -0.01 0 1 0
0.3 -0.01 0 1 1

 